TestPRBS/targets/Simulation.vcd
$date
	2023-03-06.22:24:51
$end
$version
	Novakod Studio 2018.
$end
$comment
    Port Identifier:
	     >? Input  Port
	     <? Output Port
	     /? Input  Event Port
	     \? Output Event Port
$end
$timescale
	1 ns
$end
$scope module top $end
    $var
        reg 8 <! oRandomByte
    $end
    $var
        event 1 \! oRandomByte_ev
    $end
    $var
        reg 1 <" oPrbs
    $end
    $var
        event 1 \" oPrbs_ev
    $end
$upscope $end $enddefinitions $end


#0
b0 <!
0<"
#2
#40
b11000011 <!
1<"
#42
1\!
1\"
#60
b11100100 <!
0<"
#62
1\!
1\"
#80
b01110010 <!
0<"
#82
1\!
1\"
#100
b10111001 <!
1<"
#102
1\!
1\"
#120
b01011001 <!
1<"
#122
1\!
1\"
#140
b10101001 <!
1<"
#142
1\!
1\"
#160
b11010001 <!
1<"
#162
1\!
1\"
#180
b01101101 <!
1<"
#182
1\!
1\"
#200
b00110011 <!
1<"
#202
1\!
1\"
#220
b00011100 <!
0<"
#222
1\!
1\"
#240
b00001110 <!
0<"
#242
1\!
1\"
#260
b00000111 <!
1<"
#262
1\!
1\"
#280
b00000110 <!
0<"
#282
1\!
1\"
#300
b00000011 <!
1<"
#302
1\!
1\"
#320
b10000100 <!
0<"
#322
1\!
1\"
#340
b01000010 <!
0<"
#342
1\!
1\"
#360
b10100001 <!
1<"
#362
1\!
1\"
#380
b11010101 <!
1<"
#382
1\!
1\"
#400
b11101111 <!
1<"
#402
1\!
1\"
#420
b11110010 <!
0<"
#422
1\!
1\"
#440
b11111001 <!
1<"
#442
1\!
1\"
#460
b01111001 <!
1<"
#462
1\!
1\"
#480
b10111001 <!
1<"
#482
1\!
1\"
#500
b11011001 <!
1<"
#502
1\!
1\"
#520
b11101001 <!
1<"
#522
1\!
1\"
#540
b11110001 <!
1<"
#542
1\!
1\"
#560
b01111101 <!
1<"
#562
1\!
1\"
#580
b10111011 <!
1<"
#582
1\!
1\"
#600
b01011000 <!
0<"
#602
1\!
1\"
#620
b00101100 <!
0<"
#622
1\!
1\"
#640
b00010110 <!
0<"
#642
1\!
1\"
#660
b00001011 <!
1<"
#662
1\!
1\"
#680
b0 <!
0<"
#682
1\!
1\"
#700
b10000000 <!
0<"
#702
1\!
1\"
#720
b01000000 <!
0<"
#722
1\!
1\"
#740
b10100000 <!
0<"
#742
1\!
1\"
#760
b11010000 <!
0<"
#762
1\!
1\"
#780
b11101000 <!
0<"
#782
1\!
1\"
#800
b11110100 <!
0<"
#802
1\!
1\"
#820
b01111010 <!
0<"
#822
1\!
1\"
#840
b10111101 <!
1<"
#842
1\!
1\"
#860
b01011011 <!
1<"
#862
1\!
1\"
#880
b00101000 <!
0<"
#882
1\!
1\"
#900
b10010100 <!
0<"
#902
1\!
1\"
#920
b11001010 <!
0<"
#922
1\!
1\"
#940
b01100101 <!
1<"
#942
1\!
1\"
#960
b00110111 <!
1<"
#962
1\!
1\"
#980
b00011110 <!
0<"
#982
1\!
1\"
#1000
b00001111 <!
1<"
#1002
1\!
1\"
#1020
b00000010 <!
0<"
#1022
1\!
1\"
#1040
b00000001 <!
1<"
#1042
1\!
1\"
#1060
b00000101 <!
1<"
#1062
1\!
1\"
#1080
b10000111 <!
1<"
#1082
1\!
1\"
#1100
b01000110 <!
0<"
#1102
1\!
1\"
#1120
b00100011 <!
1<"
#1122
1\!
1\"
#1140
b10010100 <!
0<"
#1142
1\!
1\"
#1160
b11001010 <!
0<"
#1162
1\!
1\"
#1180
b01100101 <!
1<"
#1182
1\!
1\"
#1200
b00110111 <!
1<"
#1202
1\!
1\"
#1220
b00011110 <!
0<"
#1222
1\!
1\"
#1240
b00001111 <!
1<"
#1242
1\!
1\"
#1260
b00000010 <!
0<"
#1262
1\!
1\"
#1280
b00000001 <!
1<"
#1282
1\!
1\"
#1300
b00000101 <!
1<"
#1302
1\!
1\"
#1320
b10000111 <!
1<"
#1322
1\!
1\"
#1340
b01000110 <!
0<"
#1342
1\!
1\"
#1360
b10100011 <!
1<"
#1362
1\!
1\"
#1380
b01010100 <!
0<"
#1382
1\!
1\"
#1400
b00101010 <!
0<"
#1402
1\!
1\"
#1420
b10010101 <!
1<"
#1422
1\!
1\"
#1440
b01001111 <!
1<"
#1442
1\!
1\"
#1460
b10100010 <!
0<"
#1462
1\!
1\"
#1480
b11010001 <!
1<"
#1482
1\!
1\"
#1500
b11101101 <!
1<"
#1502
1\!
1\"
#1520
b11110011 <!
1<"
#1522
1\!
1\"
#1540
b01111100 <!
0<"
#1542
1\!
1\"
#1560
b00111110 <!
0<"
#1562
1\!
1\"
#1580
b10011111 <!
1<"
#1582
1\!
1\"
#1600
b11001010 <!
0<"
#1602
1\!
1\"
#1620
b11100101 <!
1<"
#1622
1\!
1\"
#1640
b01110111 <!
1<"
#1642
1\!
1\"
#1660
b10111110 <!
0<"
#1662
1\!
1\"
#1680
b01011111 <!
1<"
#1682
1\!
1\"
#1700
b10101010 <!
0<"
#1702
1\!
1\"
#1720
b11010101 <!
1<"
#1722
1\!
1\"
#1740
b11101111 <!
1<"
#1742
1\!
1\"
#1760
b11110010 <!
0<"
#1762
1\!
1\"
#1780
b01111001 <!
1<"
#1782
1\!
1\"
#1800
b00111001 <!
1<"
#1802
1\!
1\"
#1820
b10011001 <!
1<"
#1822
1\!
1\"
#1840
b11001001 <!
1<"
#1842
1\!
1\"
#1860
b11100001 <!
1<"
#1862
1\!
1\"
#1880
b01110101 <!
1<"
#1882
1\!
1\"
#1900
b10111111 <!
1<"
#1902
1\!
1\"
#1920
b01011010 <!
0<"
#1922
1\!
1\"
#1940
b10101101 <!
1<"
#1942
1\!
1\"
#1960
b11010011 <!
1<"
#1962
1\!
1\"
#1980
b01101100 <!
0<"
#1982
1\!
1\"
#2000
b00110110 <!
0<"
#2002
1\!
1\"
#2020
b10011011 <!
1<"
#2022
1\!
1\"
#2040
b01001000 <!
0<"
#2042
1\!
1\"
#2060
b10100100 <!
0<"
#2062
1\!
1\"
#2080
b11010010 <!
0<"
#2082
1\!
1\"
#2100
b11101001 <!
1<"
#2102
1\!
1\"
#2120
b01110001 <!
1<"
#2122
1\!
1\"
#2140
b10111101 <!
1<"
#2142
1\!
1\"
#2160
b11011011 <!
1<"
#2162
1\!
1\"
#2180
b11101000 <!
0<"
#2182
1\!
1\"
#2200
b11110100 <!
0<"
#2202
1\!
1\"
#2220
b01111010 <!
0<"
#2222
1\!
1\"
#2240
b10111101 <!
1<"
#2242
1\!
1\"
#2260
b11011011 <!
1<"
#2262
1\!
1\"
#2280
b01101000 <!
0<"
#2282
1\!
1\"
#2300
b00110100 <!
0<"
#2302
1\!
1\"
#2320
b00011010 <!
0<"
#2322
1\!
1\"
#2340
b00001101 <!
1<"
#2342
1\!
1\"
#2360
b00000011 <!
1<"
#2362
1\!
1\"
#2380
b00000100 <!
0<"
#2382
1\!
1\"
#2400
b10000010 <!
0<"
#2402
1\!
1\"
#2420
b11000001 <!
1<"
#2422
1\!
1\"
#2440
b01100101 <!
1<"
#2442
1\!
1\"
#2460
b10110111 <!
1<"
#2462
1\!
1\"
#2480
b01011110 <!
0<"
#2482
1\!
1\"
#2500
b10101111 <!
1<"
#2502
1\!
1\"
#2520
b11010010 <!
0<"
#2522
1\!
1\"
#2540
b01101001 <!
1<"
#2542
1\!
1\"
#2560
b00110001 <!
1<"
#2562
1\!
1\"
#2580
b10011101 <!
1<"
#2582
1\!
1\"
#2600
b01001011 <!
1<"
#2602
1\!
1\"
#2620
b00100000 <!
0<"
#2622
1\!
1\"
#2640
b00010000 <!
0<"
#2642
1\!
1\"
#2660
b10001000 <!
0<"
#2662
1\!
1\"
#2680
b01000100 <!
0<"
#2682
1\!
1\"
#2700
b00100010 <!
0<"
#2702
1\!
1\"
#2720
b10010001 <!
1<"
#2722
1\!
1\"
#2740
b01001101 <!
1<"
#2742
1\!
1\"
#2760
b10100011 <!
1<"
#2762
1\!
1\"
#2780
b01010100 <!
0<"
#2782
1\!
1\"
#2800
b00101010 <!
0<"
#2802
1\!
1\"
#2820
b10010101 <!
1<"
#2822
1\!
1\"
#2840
b01001111 <!
1<"
#2842
1\!
1\"
#2860
b10100010 <!
0<"
#2862
1\!
1\"
#2880
b01010001 <!
1<"
#2882
1\!
1\"
#2900
b10101101 <!
1<"
#2902
1\!
1\"
#2920
b01010011 <!
1<"
#2922
1\!
1\"
#2940
b00101100 <!
0<"
#2942
1\!
1\"
#2960
b10010110 <!
0<"
#2962
1\!
1\"
#2980
b11001011 <!
1<"
#2982
1\!
1\"
#3000
b11100000 <!
0<"
#3002
1\!
1\"
#3020
b11110000 <!
0<"
#3022
1\!
1\"
#3040
b01111000 <!
0<"
#3042
1\!
1\"
#3060
b00111100 <!
0<"
#3062
1\!
1\"
#3080
b00011110 <!
0<"
#3082
1\!
1\"
#3100
b10001111 <!
1<"
#3102
1\!
1\"
#3120
b01000010 <!
0<"
#3122
1\!
1\"
#3140
b00100001 <!
1<"
#3142
1\!
1\"
#3160
b00010101 <!
1<"
#3162
1\!
1\"
#3180
b00001111 <!
1<"
#3182
1\!
1\"
#3200
b10000010 <!
0<"
#3202
1\!
1\"
#3220
b01000001 <!
1<"
#3222
1\!
1\"
#3240
b00100101 <!
1<"
#3242
1\!
1\"
#3260
b10010111 <!
1<"
#3262
1\!
1\"
#3280
b01001110 <!
0<"
#3282
1\!
1\"
#3300
b10100111 <!
1<"
#3302
1\!
1\"
#3320
b01010110 <!
0<"
#3322
1\!
1\"
#3340
b10101011 <!
1<"
#3342
1\!
1\"
#3360
b11010000 <!
0<"
#3362
1\!
1\"
#3380
b01101000 <!
0<"
#3382
1\!
1\"
#3400
b00110100 <!
0<"
#3402
1\!
1\"
#3420
b10011010 <!
0<"
#3422
1\!
1\"
#3440
b01001101 <!
1<"
#3442
1\!
1\"
#3460
b10100011 <!
1<"
#3462
1\!
1\"
#3480
b11010100 <!
0<"
#3482
1\!
1\"
#3500
b01101010 <!
0<"
#3502
1\!
1\"
#3520
b00110101 <!
1<"
#3522
1\!
1\"
#3540
b00011111 <!
1<"
#3542
1\!
1\"
#3560
b00001010 <!
0<"
#3562
1\!
1\"
#3580
b10000101 <!
1<"
#3582
1\!
1\"
#3600
b11000111 <!
1<"
#3602
1\!
1\"
#3620
b11100110 <!
0<"
#3622
1\!
1\"
#3640
b01110011 <!
1<"
#3642
1\!
1\"
#3660
b00111100 <!
0<"
#3662
1\!
1\"
#3680
b10011110 <!
0<"
#3682
1\!
1\"
#3700
b11001111 <!
1<"
#3702
1\!
1\"
#3720
b01100010 <!
0<"
#3722
1\!
1\"
#3740
b00110001 <!
1<"
#3742
1\!
1\"
#3760
b10011101 <!
1<"
#3762
1\!
1\"
#3780
b11001011 <!
1<"
#3782
1\!
1\"
#3800
b11100000 <!
0<"
#3802
1\!
1\"
#3820
b11110000 <!
0<"
#3822
1\!
1\"
#3840
b11111000 <!
0<"
#3842
1\!
1\"
#3860
b01111100 <!
0<"
#3862
1\!
1\"
#3880
b00111110 <!
0<"
#3882
1\!
1\"
#3900
b00011111 <!
1<"
#3902
1\!
1\"
#3920
b10001010 <!
0<"
#3922
1\!
1\"
#3940
b01000101 <!
1<"
#3942
1\!
1\"
#3960
b10100111 <!
1<"
#3962
1\!
1\"
#3980
b01010110 <!
0<"
#3982
1\!
1\"
#4000
b10101011 <!
1<"
#4002
1\!
1\"
#4020
b01010000 <!
0<"
#4022
1\!
1\"
#4040
b10101000 <!
0<"
#4042
1\!
1\"
#4060
b11010100 <!
0<"
#4062
1\!
1\"
#4080
b01101010 <!
0<"
#4082
1\!
1\"
#4100
b10110101 <!
1<"
#4102
1\!
1\"
#4120
b11011111 <!
1<"
#4122
1\!
1\"
#4140
b11101010 <!
0<"
#4142
1\!
1\"
#4160
b01110101 <!
1<"
#4162
1\!
1\"
#4180
b10111111 <!
1<"
#4182
1\!
1\"
#4200
b11011010 <!
0<"
#4202
1\!
1\"
#4220
b11101101 <!
1<"
#4222
1\!
1\"
#4240
b01110011 <!
1<"
#4242
1\!
1\"
#4260
b00111100 <!
0<"
#4262
1\!
1\"
#4280
b10011110 <!
0<"
#4282
1\!
1\"
#4300
b01001111 <!
1<"
#4302
1\!
1\"
#4320
b00100010 <!
0<"
#4322
1\!
1\"
#4340
b00010001 <!
1<"
#4342
1\!
1\"
#4360
b00001101 <!
1<"
#4362
1\!
1\"
#4380
b10000011 <!
1<"
#4382
1\!
1\"
#4400
b11000100 <!
0<"
#4402
1\!
1\"
#4420
b11100010 <!
0<"
#4422
1\!
1\"
#4440
b01110001 <!
1<"
#4442
1\!
1\"
#4460
b10111101 <!
1<"
#4462
1\!
1\"
#4480
b11011011 <!
1<"
#4482
1\!
1\"
#4500
b11101000 <!
0<"
#4502
1\!
1\"
#4520
b01110100 <!
0<"
#4522
1\!
1\"
#4540
b00111010 <!
0<"
#4542
1\!
1\"
#4560
b00011101 <!
1<"
#4562
1\!
1\"
#4580
b10001011 <!
1<"
#4582
1\!
1\"
#4600
b01000000 <!
0<"
#4602
1\!
1\"
#4620
b10100000 <!
0<"
#4622
1\!
1\"
#4640
b11010000 <!
0<"
#4642
1\!
1\"
#4660
b01101000 <!
0<"
#4662
1\!
1\"
#4680
b10110100 <!
0<"
#4682
1\!
1\"
#4700
b11011010 <!
0<"
#4702
1\!
1\"
#4720
b01101101 <!
1<"
#4722
1\!
1\"
#4740
b10110011 <!
1<"
#4742
1\!
1\"
#4760
b01011100 <!
0<"
#4762
1\!
1\"
#4780
b10101110 <!
0<"
#4782
1\!
1\"
#4800
b11010111 <!
1<"
#4802
1\!
1\"
#4820
b11101110 <!
0<"
#4822
1\!
1\"
#4840
b01110111 <!
1<"
#4842
1\!
1\"
#4860
b00111110 <!
0<"
#4862
1\!
1\"
#4880
b10011111 <!
1<"
#4882
1\!
1\"
#4900
b01001010 <!
0<"
#4902
1\!
1\"
#4920
b10100101 <!
1<"
#4922
1\!
1\"
#4940
b01010111 <!
1<"
#4942
1\!
1\"
#4960
b00101110 <!
0<"
#4962
1\!
1\"
#4980
b10010111 <!
1<"
#4982
1\!
1\"
#5000
b01001110 <!
0<"
#5002
1\!
1\"
#5020
b00100111 <!
1<"
#5022
1\!
1\"
#5040
b10010110 <!
0<"
#5042
1\!
1\"
#5060
b01001011 <!
1<"
#5062
1\!
1\"
#5080
b10100000 <!
0<"
#5082
1\!
1\"
#5100
b01010000 <!
0<"
#5102
1\!
1\"
#5120
b00101000 <!
0<"
#5122
1\!
1\"
#5140
b00010100 <!
0<"
#5142
1\!
1\"
#5160
b00001010 <!
0<"
#5162
1\!
1\"
#5180
b00000101 <!
1<"
#5182
1\!
1\"
#5200
b10000111 <!
1<"
#5202
1\!
1\"
#5220
b01000110 <!
0<"
#5222
1\!
1\"
#5240
b10100011 <!
1<"
#5242
1\!
1\"
#5260
b01010100 <!
0<"
#5262
1\!
1\"
#5280
b10101010 <!
0<"
#5282
1\!
1\"
#5300
b11010101 <!
1<"
#5302
1\!
1\"
#5320
b11101111 <!
1<"
#5322
1\!
1\"
#5340
b11110010 <!
0<"
#5342
1\!
1\"
#5360
b11111001 <!
1<"
#5362
1\!
1\"
#5380
b11111001 <!
1<"
#5382
1\!
1\"
#5400
b11111001 <!
1<"
#5402
1\!
1\"
#5420
b01111001 <!
1<"
#5422
1\!
1\"
#5440
b10111001 <!
1<"
#5442
1\!
1\"
#5460
b11011001 <!
1<"
#5462
1\!
1\"
#5480
b11101001 <!
1<"
#5482
1\!
1\"
#5500
b11110001 <!
1<"
#5502
1\!
1\"
#5520
b11111101 <!
1<"
#5522
1\!
1\"
#5540
b11111011 <!
1<"
#5542
1\!
1\"
#5560
b11111000 <!
0<"
#5562
1\!
1\"
#5580
b01111100 <!
0<"
#5582
1\!
1\"
#5600
b00111110 <!
0<"
#5602
1\!
1\"
#5620
b00011111 <!
1<"
#5622
1\!
1\"
#5640
b00001010 <!
0<"
#5642
1\!
1\"
#5660
b10000101 <!
1<"
#5662
1\!
1\"
#5680
b01000111 <!
1<"
#5682
1\!
1\"
#5700
b10100110 <!
0<"
#5702
1\!
1\"
#5720
b11010011 <!
1<"
#5722
1\!
1\"
#5740
b11101100 <!
0<"
#5742
1\!
1\"
#5760
b01110110 <!
0<"
#5762
1\!
1\"
#5780
b10111011 <!
1<"
#5782
1\!
1\"
#5800
b01011000 <!
0<"
#5802
1\!
1\"
#5820
b10101100 <!
0<"
#5822
1\!
1\"
#5840
b11010110 <!
0<"
#5842
1\!
1\"
#5860
b01101011 <!
1<"
#5862
1\!
1\"
#5880
b00110000 <!
0<"
#5882
1\!
1\"
#5900
b00011000 <!
0<"
#5902
1\!
1\"
#5920
b00001100 <!
0<"
#5922
1\!
1\"
#5940
b00000110 <!
0<"
#5942
1\!
1\"
#5960
b00000011 <!
1<"
#5962
1\!
1\"
#5980
b00000100 <!
0<"
#5982
1\!
1\"
#6000
b00000010 <!
0<"
#6002
1\!
1\"
#6020
b00000001 <!
1<"
#6022
1\!
1\"
#6040
b10000101 <!
1<"
#6042
1\!
1\"
#6060
b01000111 <!
1<"
#6062
1\!
1\"
#6080
b00100110 <!
0<"
#6082
1\!
1\"
#6100
b10010011 <!
1<"
#6102
1\!
1\"
#6120
b11001100 <!
0<"
#6122
1\!
1\"
#6140
b11100110 <!
0<"
#6142
1\!
1\"
#6160
b01110011 <!
1<"
#6162
1\!
1\"
#6180
b10111100 <!
0<"
#6182
1\!
1\"
#6200
b11011110 <!
0<"
#6202
1\!
1\"
#6220
b11101111 <!
1<"
#6222
1\!
1\"
#6240
b01110010 <!
0<"
#6242
1\!
1\"
#6260
b10111001 <!
1<"
#6262
1\!
1\"
#6280
b11011001 <!
1<"
#6282
1\!
1\"
#6300
b01101001 <!
1<"
#6302
1\!
1\"
#6320
b00110001 <!
1<"
#6322
1\!
1\"
#6340
b10011101 <!
1<"
#6342
1\!
1\"
#6360
b11001011 <!
1<"
#6362
1\!
1\"
#6380
b01100000 <!
0<"
#6382
1\!
1\"
#6400
b00110000 <!
0<"
#6402
1\!
1\"
#6420
b00011000 <!
0<"
#6422
1\!
1\"
#6440
b10001100 <!
0<"
#6442
1\!
1\"
#6460
b11000110 <!
0<"
#6462
1\!
1\"
#6480
b01100011 <!
1<"
#6482
1\!
1\"
#6500
b10110100 <!
0<"
#6502
1\!
1\"
#6520
b01011010 <!
0<"
#6522
1\!
1\"
#6540
b00101101 <!
1<"
#6542
1\!
1\"
#6560
b10010011 <!
1<"
#6562
1\!
1\"
#6580
b11001100 <!
0<"
#6582
1\!
1\"
#6600
b11100110 <!
0<"
#6602
1\!
1\"
#6620
b01110011 <!
1<"
#6622
1\!
1\"
#6640
b10111100 <!
0<"
#6642
1\!
1\"
#6660
b11011110 <!
0<"
#6662
1\!
1\"
#6680
b01101111 <!
1<"
#6682
1\!
1\"
#6700
b10110010 <!
0<"
#6702
1\!
1\"
#6720
b11011001 <!
1<"
#6722
1\!
1\"
#6740
b11101001 <!
1<"
#6742
1\!
1\"
#6760
b01110001 <!
1<"
#6762
1\!
1\"
#6780
b00111101 <!
1<"
#6782
1\!
1\"
#6800
b00011011 <!
1<"
#6802
1\!
1\"
#6820
b00001000 <!
0<"
#6822
1\!
1\"
#6840
b00000100 <!
0<"
#6842
1\!
1\"
#6860
b10000010 <!
0<"
#6862
1\!
1\"
#6880
b01000001 <!
1<"
#6882
1\!
1\"
#6900
b00100101 <!
1<"
#6902
1\!
1\"
#6920
b00010111 <!
1<"
#6922
1\!
1\"
#6940
b00001110 <!
0<"
#6942
1\!
1\"
#6960
b10000111 <!
1<"
#6962
1\!
1\"
#6980
b11000110 <!
0<"
#6982
1\!
1\"
#7000
b01100011 <!
1<"
#7002
1\!
1\"
#7020
b10110100 <!
0<"
#7022
1\!
1\"
#7040
b01011010 <!
0<"
#7042
1\!
1\"
#7060
b10101101 <!
1<"
#7062
1\!
1\"
#7080
b01010011 <!
1<"
#7082
1\!
1\"
#7100
b10101100 <!
0<"
#7102
1\!
1\"
#7120
b11010110 <!
0<"
#7122
1\!
1\"
#7140
b01101011 <!
1<"
#7142
1\!
1\"
#7160
b10110000 <!
0<"
#7162
1\!
1\"
#7180
b11011000 <!
0<"
#7182
1\!
1\"
#7200
b11101100 <!
0<"
#7202
1\!
1\"
#7220
b01110110 <!
0<"
#7222
1\!
1\"
#7240
b00111011 <!
1<"
#7242
1\!
1\"
#7260
b00011000 <!
0<"
#7262
1\!
1\"
#7280
b00001100 <!
0<"
#7282
1\!
1\"
#7300
b10000110 <!
0<"
#7302
1\!
1\"
#7320
b01000011 <!
1<"
#7322
1\!
1\"
#7340
b00100100 <!
0<"
#7342
1\!
1\"
#7360
b10010010 <!
0<"
#7362
1\!
1\"
#7380
b01001001 <!
1<"
#7382
1\!
1\"
#7400
b00100001 <!
1<"
#7402
1\!
1\"
#7420
b10010101 <!
1<"
#7422
1\!
1\"
#7440
b11001111 <!
1<"
#7442
1\!
1\"
#7460
b11100010 <!
0<"
#7462
1\!
1\"
#7480
b11110001 <!
1<"
#7482
1\!
1\"
#7500
b11111101 <!
1<"
#7502
1\!
1\"
#7520
b01111011 <!
1<"
#7522
1\!
1\"
#7540
b10111000 <!
0<"
#7542
1\!
1\"
#7560
b01011100 <!
0<"
#7562
1\!
1\"
#7580
b10101110 <!
0<"
#7582
1\!
1\"
#7600
b01010111 <!
1<"
#7602
1\!
1\"
#7620
b10101110 <!
0<"
#7622
1\!
1\"
#7640
b11010111 <!
1<"
#7642
1\!
1\"
#7660
b01101110 <!
0<"
#7662
1\!
1\"
#7680
b00110111 <!
1<"
#7682
1\!
1\"
#7700
b00011110 <!
0<"
#7702
1\!
1\"
#7720
b10001111 <!
1<"
#7722
1\!
1\"
#7740
b11000010 <!
0<"
#7742
1\!
1\"
#7760
b01100001 <!
1<"
#7762
1\!
1\"
#7780
b00110101 <!
1<"
#7782
1\!
1\"
#7800
b10011111 <!
1<"
#7802
1\!
1\"
#7820
b11001010 <!
0<"
#7822
1\!
1\"
#7840
b01100101 <!
1<"
#7842
1\!
1\"
#7860
b10110111 <!
1<"
#7862
1\!
1\"
#7880
b01011110 <!
0<"
#7882
1\!
1\"
#7900
b00101111 <!
1<"
#7902
1\!
1\"
#7920
b00010010 <!
0<"
#7922
1\!
1\"
#7940
b10001001 <!
1<"
#7942
1\!
1\"
#7960
b11000001 <!
1<"
#7962
1\!
1\"
#7980
b01100101 <!
1<"
#7982
1\!
1\"
#8000
b00110111 <!
1<"
#8002
1\!
1\"
#8020
b10011110 <!
0<"
#8022
1\!
1\"
#8040
b01001111 <!
1<"
#8042
1\!
1\"
#8060
b00100010 <!
0<"
#8062
1\!
1\"
#8080
b10010001 <!
1<"
#8082
1\!
1\"
#8100
b11001101 <!
1<"
#8102
1\!
1\"
#8120
b11100011 <!
1<"
#8122
1\!
1\"
#8140
b11110100 <!
0<"
#8142
1\!
1\"
#8160
b11111010 <!
0<"
#8162
1\!
1\"
#8180
b11111101 <!
1<"
#8182
1\!
1\"
#8200
b11111011 <!
1<"
#8202
1\!
1\"
#8220
b11111000 <!
0<"
#8222
1\!
1\"
#8240
b11111100 <!
0<"
#8242
1\!
1\"
#8260
b01111110 <!
0<"
#8262
1\!
1\"
#8280
b00111111 <!
1<"
#8282
1\!
1\"
#8300
b10011010 <!
0<"
#8302
1\!
1\"
#8320
b11001101 <!
1<"
#8322
1\!
1\"
#8340
b01100011 <!
1<"
#8342
1\!
1\"
#8360
b10110100 <!
0<"
#8362
1\!
1\"
#8380
b11011010 <!
0<"
#8382
1\!
1\"
#8400
b11101101 <!
1<"
#8402
1\!
1\"
#8420
b11110011 <!
1<"
#8422
1\!
1\"
#8440
b01111100 <!
0<"
#8442
1\!
1\"
#8460
b00111110 <!
0<"
#8462
1\!
1\"
#8480
b00011111 <!
1<"
#8482
1\!
1\"
#8500
b10001010 <!
0<"
#8502
1\!
1\"
#8520
b11000101 <!
1<"
#8522
1\!
1\"
#8540
b11100111 <!
1<"
#8542
1\!
1\"
#8560
b11110110 <!
0<"
#8562
1\!
1\"
#8580
b01111011 <!
1<"
#8582
1\!
1\"
#8600
b00111000 <!
0<"
#8602
1\!
1\"
#8620
b10011100 <!
0<"
#8622
1\!
1\"
#8640
b01001110 <!
0<"
#8642
1\!
1\"
#8660
b10100111 <!
1<"
#8662
1\!
1\"
#8680
b01010110 <!
0<"
#8682
1\!
1\"
#8700
b10101011 <!
1<"
#8702
1\!
1\"
#8720
b01010000 <!
0<"
#8722
1\!
1\"
#8740
b00101000 <!
0<"
#8742
1\!
1\"
#8760
b10010100 <!
0<"
#8762
1\!
1\"
#8780
b11001010 <!
0<"
#8782
1\!
1\"
#8800
b11100101 <!
1<"
#8802
1\!
1\"
#8820
b01110111 <!
1<"
#8822
1\!
1\"
#8840
b10111110 <!
0<"
#8842
1\!
1\"
#8860
b01011111 <!
1<"
#8862
1\!
1\"
#8880
b10101010 <!
0<"
#8882
1\!
1\"
#8900
b01010101 <!
1<"
#8902
1\!
1\"
#8920
b10101111 <!
1<"
#8922
1\!
1\"
#8940
b01010010 <!
0<"
#8942
1\!
1\"
#8960
b10101001 <!
1<"
#8962
1\!
1\"
#8980
b11010001 <!
1<"
#8982
1\!
1\"
#9000
b11101101 <!
1<"
#9002
1\!
1\"
#9020
b01110011 <!
1<"
#9022
1\!
1\"
#9040
b10111100 <!
0<"
#9042
1\!
1\"
#9060
b11011110 <!
0<"
#9062
1\!
1\"
#9080
b11101111 <!
1<"
#9082
1\!
1\"
#9100
b01110010 <!
0<"
#9102
1\!
1\"
#9120
b00111001 <!
1<"
#9122
1\!
1\"
#9140
b10011001 <!
1<"
#9142
1\!
1\"
#9160
b11001001 <!
1<"
#9162
1\!
1\"
#9180
b11100001 <!
1<"
#9182
1\!
1\"
#9200
b11110101 <!
1<"
#9202
1\!
1\"
#9220
b01111111 <!
1<"
#9222
1\!
1\"
#9240
b00111010 <!
0<"
#9242
1\!
1\"
#9260
b00011101 <!
1<"
#9262
1\!
1\"
#9280
b10001011 <!
1<"
#9282
1\!
1\"
#9300
b01000000 <!
0<"
#9302
1\!
1\"
#9320
b10100000 <!
0<"
#9322
1\!
1\"
#9340
b11010000 <!
0<"
#9342
1\!
1\"
#9360
b11101000 <!
0<"
#9362
1\!
1\"
#9380
b11110100 <!
0<"
#9382
1\!
1\"
#9400
b01111010 <!
0<"
#9402
1\!
1\"
#9420
b10111101 <!
1<"
#9422
1\!
1\"
#9440
b11011011 <!
1<"
#9442
1\!
1\"
#9460
b01101000 <!
0<"
#9462
1\!
1\"
#9480
b00110100 <!
0<"
#9482
1\!
1\"
#9500
b00011010 <!
0<"
#9502
1\!
1\"
#9520
b10001101 <!
1<"
#9522
1\!
1\"
#9540
b01000011 <!
1<"
#9542
1\!
1\"
#9560
b10100100 <!
0<"
#9562
1\!
1\"
#9580
b11010010 <!
0<"
#9582
1\!
1\"
#9600
b11101001 <!
1<"
#9602
1\!
1\"
#9620
b01110001 <!
1<"
#9622
1\!
1\"
#9640
b00111101 <!
1<"
#9642
1\!
1\"
#9660
b00011011 <!
1<"
#9662
1\!
1\"
#9680
b00001000 <!
0<"
#9682
1\!
1\"
#9700
b00000100 <!
0<"
#9702
1\!
1\"
#9720
b10000010 <!
0<"
#9722
1\!
1\"
#9740
b11000001 <!
1<"
#9742
1\!
1\"
#9760
b01100101 <!
1<"
#9762
1\!
1\"
#9780
b10110111 <!
1<"
#9782
1\!
1\"
#9800
b01011110 <!
0<"
#9802
1\!
1\"
#9820
b00101111 <!
1<"
#9822
1\!
1\"
#9840
b00010010 <!
0<"
#9842
1\!
1\"
#9860
b00001001 <!
1<"
#9862
1\!
1\"
#9880
b00000001 <!
1<"
#9882
1\!
1\"
#9900
b10000101 <!
1<"
#9902
1\!
1\"
#9920
b01000111 <!
1<"
#9922
1\!
1\"
#9940
b10100110 <!
0<"
#9942
1\!
1\"
#9960
b01010011 <!
1<"
#9962
1\!
1\"
#9980
b00101100 <!
0<"
#9982
1\!
1\"
#10000
b10010110 <!
0<"
#10002
1\!
1\"
#10020
b01001011 <!
1<"
#10022
1\!
1\"
#10040
b10100000 <!
0<"
#10042
1\!
1\"
#10060
b01010000 <!
0<"
#10062
1\!
1\"
#10080
b10101000 <!
0<"
#10082
1\!
1\"
#10100
b01010100 <!
0<"
#10102
1\!
1\"
#10120
b00101010 <!
0<"
#10122
1\!
1\"
#10140
b00010101 <!
1<"
#10142
1\!
1\"
#10160
b10001111 <!
1<"
#10162
1\!
1\"
#10180
b01000010 <!
0<"
#10182
1\!
1\"
#10200
b00100001 <!
1<"
#10202
1\!
1\"
#10220
b10010101 <!
1<"
#10222
1\!
1\"
#10240
b01001111 <!
1<"
#10242
1\!
1\"
#10260
b00100010 <!
0<"
#10262
1\!
1\"
#10280
b10010001 <!
1<"
#10282
1\!
1\"
#10300
b11001101 <!
1<"
#10302
1\!
1\"
#10320
b11100011 <!
1<"
#10322
1\!
1\"
#10340
b11110100 <!
0<"
#10342
1\!
1\"
#10360
b01111010 <!
0<"
#10362
1\!
1\"
#10380
b00111101 <!
1<"
#10382
1\!
1\"
#10400
b00011011 <!
1<"
#10402
1\!
1\"
#10420
b10001000 <!
0<"
#10422
1\!
1\"
#10440
b11000100 <!
0<"
#10442
1\!
1\"
#10460
b11100010 <!
0<"
#10462
1\!
1\"
#10480
b01110001 <!
1<"
#10482
1\!
1\"
#10500
b10111101 <!
1<"
#10502
1\!
1\"
#10520
b11011011 <!
1<"
#10522
1\!
1\"
#10540
b01101000 <!
0<"
#10542
1\!
1\"
#10560
b00110100 <!
0<"
#10562
1\!
1\"
#10580
b00011010 <!
0<"
#10582
1\!
1\"
#10600
b00001101 <!
1<"
#10602
1\!
1\"
#10620
b10000011 <!
1<"
