TestRandom/targets/Simulation.vcd
$date
	2023-03-06.22:28:57
$end
$version
	Novakod Studio 2018.
$end
$comment
    Port Identifier:
	     >? Input  Port
	     <? Output Port
	     /? Input  Event Port
	     \? Output Event Port
$end
$timescale
	1 ns
$end
$scope module top $end
    $var
        reg 8 <! oRandomByte
    $end
    $var
        reg 1 <" oRandomBit
    $end
$upscope $end $enddefinitions $end


#0
b0 <!
0<"
#2
#60
b11111111 <!
1<"
#62
#80
b10000110 <!
#82
#100
b11101101 <!
#102
#120
b00010000 <!
0<"
#122
#140
b01000100 <!
#142
#160
b01100101 <!
#162
#180
b01011000 <!
#182
#200
b01101011 <!
#202
#220
b10111101 <!
1<"
#222
#240
b10001010 <!
#242
#260
b00010000 <!
0<"
#262
#280
b10101011 <!
1<"
#282
#300
b10111010 <!
#302
#320
b11010001 <!
#322
#340
b01000000 <!
0<"
#342
#360
b00111100 <!
#362
#380
b10100011 <!
1<"
#382
#400
b00100110 <!
0<"
#402
#420
b10100101 <!
1<"
#422
#440
b10110111 <!
#442
#460
b01001100 <!
0<"
#462
#480
b11011011 <!
1<"
#482
#500
b00101101 <!
0<"
#502
#520
b00110111 <!
#522
#540
b10010110 <!
1<"
#542
#560
b10101101 <!
#562
#580
b10111001 <!
#582
#600
b10101110 <!
#602
#620
b00000110 <!
0<"
#622
#640
b00111100 <!
#642
#660
b11001001 <!
1<"
#662
#680
b01111111 <!
0<"
#682
#700
b10011110 <!
1<"
#702
#720
b01101110 <!
0<"
#722
#740
b01111000 <!
#742
#760
b10100110 <!
1<"
#762
#780
b10011010 <!
#782
#800
b10010111 <!
#802
#820
b00000111 <!
0<"
#822
#840
b10111111 <!
1<"
#842
#860
b01100100 <!
0<"
#862
#880
b11011001 <!
1<"
#882
#900
b01011111 <!
0<"
#902
#920
b01001000 <!
#922
#940
b01011101 <!
#942
#960
b01111011 <!
#962
#980
b10110111 <!
1<"
#982
#1000
b10010100 <!
#1002
#1020
b01001101 <!
0<"
#1022
#1040
b11011111 <!
1<"
#1042
#1060
b10001001 <!
#1062
#1080
b00111011 <!
0<"
#1082
#1100
b00001010 <!
#1102
#1120
b01101101 <!
#1122
#1140
b10111011 <!
1<"
#1142
#1160
b10100101 <!
#1162
#1180
b11100000 <!
#1182
#1200
b01000100 <!
0<"
#1202
#1220
b00111010 <!
#1222
#1240
b11010000 <!
1<"
#1242
#1260
b01100010 <!
0<"
#1262
#1280
b10010110 <!
1<"
#1282
#1300
b0 <!
0<"
#1302
#1320
b01100111 <!
#1322
#1340
b11000110 <!
1<"
#1342
#1360
b10011100 <!
#1362
#1380
b10000110 <!
#1382
#1400
b00011101 <!
0<"
#1402
#1420
b00000001 <!
#1422
#1440
b11011111 <!
1<"
#1442
#1460
b10110101 <!
#1462
#1480
b11000100 <!
#1482
#1500
b01100001 <!
0<"
#1502
#1520
b00110100 <!
#1522
#1540
b10000011 <!
1<"
#1542
#1560
b00011101 <!
0<"
#1562
#1580
b01101100 <!
#1582
#1600
b11011000 <!
1<"
#1602
#1620
b11000100 <!
#1622
#1640
b01011001 <!
0<"
#1642
#1660
b01101001 <!
#1662
#1680
b01110010 <!
#1682
#1700
b11110101 <!
1<"
#1702
#1720
b01100100 <!
0<"
#1722
#1740
b00110110 <!
#1742
#1760
b11111001 <!
1<"
#1762
#1780
b00011111 <!
0<"
#1782
#1800
b00011010 <!
#1802
#1820
b00001010 <!
#1822
#1840
b10011010 <!
1<"
#1842
#1860
b01000111 <!
0<"
#1862
#1880
b01000001 <!
#1882
#1900
b10010000 <!
1<"
#1902
#1920
b10110010 <!
#1922
#1940
b01001111 <!
0<"
#1942
#1960
b11110011 <!
1<"
#1962
#1980
b00111111 <!
0<"
#1982
#2000
b00110110 <!
#2002
#2020
b11011011 <!
1<"
#2022
#2040
b10001010 <!
#2042
#2060
b00001000 <!
0<"
#2062
#2080
b10100000 <!
1<"
#2082
#2100
b10000111 <!
#2102
#2120
b10001100 <!
#2122
#2140
b11000111 <!
#2142
#2160
b01111110 <!
0<"
#2162
#2180
b01110000 <!
#2182
#2200
b10110010 <!
1<"
#2202
#2220
b11000011 <!
#2222
#2240
b11010110 <!
#2242
#2260
b00001001 <!
0<"
#2262
#2280
b00001011 <!
#2282
#2300
b01011001 <!
#2302
#2320
b11101010 <!
1<"
#2322
#2340
b10111110 <!
#2342
#2360
b00010110 <!
0<"
#2362
#2380
b00101000 <!
#2382
#2400
b00100010 <!
#2402
#2420
b11011101 <!
1<"
#2422
#2440
b10110010 <!
#2442
#2460
b00111010 <!
0<"
#2462
#2480
b01111011 <!
#2482
#2500
b01100000 <!
#2502
#2520
b00000110 <!
#2522
#2540
b10000111 <!
1<"
#2542
#2560
b10110010 <!
#2562
#2580
b01100111 <!
0<"
#2582
#2600
b01110111 <!
#2602
#2620
b00101101 <!
#2622
#2640
b11100010 <!
1<"
#2642
#2660
b01100111 <!
0<"
#2662
#2680
b01010101 <!
#2682
#2700
b10011100 <!
1<"
#2702
#2720
b11000110 <!
#2722
#2740
b01110101 <!
0<"
#2742
#2760
b01010100 <!
#2762
#2780
b01100100 <!
#2782
#2800
b01000010 <!
#2802
#2820
b10101001 <!
1<"
#2822
#2840
b01111011 <!
0<"
#2842
#2860
b10011101 <!
1<"
#2862
#2880
b01011110 <!
0<"
#2882
#2900
b01010100 <!
#2902
#2920
b00110100 <!
#2922
#2940
b00110110 <!
#2942
#2960
b00000100 <!
#2962
#2980
b01100110 <!
#2982
#3000
b00111100 <!
#3002
#3020
b11100110 <!
1<"
#3022
#3040
b10101100 <!
#3042
#3060
b11110111 <!
#3062
#3080
b01000001 <!
0<"
#3082
#3100
b00010001 <!
#3102
#3120
b01011000 <!
#3122
#3140
b11001001 <!
1<"
#3142
#3160
b00101001 <!
0<"
#3162
#3180
b01101100 <!
#3182
#3200
b11000110 <!
1<"
#3202
#3220
b00000110 <!
0<"
#3222
#3240
b00010000 <!
#3242
#3260
b01100101 <!
#3262
#3280
b01101101 <!
#3282
#3300
b01000110 <!
#3302
#3320
b10110011 <!
1<"
#3322
#3340
b01011011 <!
0<"
#3342
#3360
b10101110 <!
1<"
#3362
#3380
b11011010 <!
#3382
#3400
b11110110 <!
#3402
#3420
b10011101 <!
#3422
#3440
b10000010 <!
#3442
#3460
b00111010 <!
0<"
#3462
#3480
b00011101 <!
#3482
#3500
b11000010 <!
1<"
#3502
#3520
b00110101 <!
0<"
#3522
#3540
b00010001 <!
#3542
#3560
b01110111 <!
#3562
#3580
b10111110 <!
1<"
#3582
#3600
b11111010 <!
#3602
#3620
b00101001 <!
0<"
#3622
#3640
b10001011 <!
1<"
#3642
#3660
b00110001 <!
0<"
#3662
#3680
b01011011 <!
#3682
#3700
b00000011 <!
#3702
#3720
b10111111 <!
1<"
#3722
#3740
b01110000 <!
0<"
#3742
#3760
b01000000 <!
#3762
#3780
b01100001 <!
#3782
#3800
b00110101 <!
#3802
#3820
b00101001 <!
#3822
#3840
b11011001 <!
1<"
#3842
#3860
b10000011 <!
#3862
#3880
b00100001 <!
0<"
#3882
#3900
b10000000 <!
1<"
#3902
#3920
b00000101 <!
0<"
#3922
#3940
b11010111 <!
1<"
#3942
#3960
b01001010 <!
0<"
#3962
#3980
b01001000 <!
#3982
#4000
b00001010 <!
#4002
#4020
b00101101 <!
#4022
#4040
b10001000 <!
1<"
#4042
#4060
b10001010 <!
#4062
#4080
b00010101 <!
0<"
#4082
#4100
b00111101 <!
#4102
#4120
b01011010 <!
#4122
#4140
b10001000 <!
1<"
#4142
#4160
b10111100 <!
#4162
#4180
b01101011 <!
0<"
#4182
#4200
b10111011 <!
1<"
#4202
#4220
b00011101 <!
0<"
#4222
#4240
b11110110 <!
1<"
#4242
#4260
b11010110 <!
#4262
#4280
b11101110 <!
#4282
#4300
b10010010 <!
#4302
#4320
b00111110 <!
0<"
#4322
#4340
b10010011 <!
1<"
#4342
#4360
b11000010 <!
#4362
#4380
b00100000 <!
0<"
#4382
#4400
b00000001 <!
#4402
#4420
b10100001 <!
1<"
#4422
#4440
b11000100 <!
#4442
#4460
b10111110 <!
#4462
#4480
b11110000 <!
#4482
#4500
b00011101 <!
0<"
#4502
#4520
b11000101 <!
1<"
#4522
#4540
b01110100 <!
0<"
#4542
#4560
b10000011 <!
1<"
#4562
#4580
b01101101 <!
0<"
#4582
#4600
b10101000 <!
1<"
#4602
#4620
b00110100 <!
0<"
#4622
#4640
b01000001 <!
#4642
#4660
b00001010 <!
#4662
#4680
b11110000 <!
1<"
#4682
#4700
b10011100 <!
#4702
#4720
b10010110 <!
#4722
#4740
b11111011 <!
#4742
#4760
b00011101 <!
0<"
#4762
#4780
b01111011 <!
#4782
#4800
b10110001 <!
1<"
#4802
#4820
b01110111 <!
0<"
#4822
#4840
b00001000 <!
#4842
#4860
b01010010 <!
#4862
#4880
b00100011 <!
#4882
#4900
b00011011 <!
#4902
#4920
b01100001 <!
#4922
#4940
b01111011 <!
#4942
#4960
b11110111 <!
1<"
#4962
#4980
b00111101 <!
0<"
#4982
#5000
b10100011 <!
1<"
#5002
#5020
b01111101 <!
0<"
#5022
#5040
b00000110 <!
#5042
#5060
b01001001 <!
#5062
#5080
b01101000 <!
#5082
#5100
b01011001 <!
#5102
#5120
b00011010 <!
#5122
#5140
b11010011 <!
1<"
#5142
#5160
b00110101 <!
0<"
#5162
#5180
b11001001 <!
1<"
#5182
#5200
b10001001 <!
#5202
#5220
b10100100 <!
#5222
#5240
b01110101 <!
0<"
#5242
#5260
b00110011 <!
#5262
#5280
b00011100 <!
#5282
#5300
b11100011 <!
1<"
#5302
#5320
b01110111 <!
0<"
#5322
#5340
b00111100 <!
#5342
#5360
b01100111 <!
#5362
#5380
b10001000 <!
1<"
#5382
#5400
b00110110 <!
0<"
#5402
#5420
b01100110 <!
#5422
#5440
b11000001 <!
1<"
#5442
#5460
b10011101 <!
#5462
#5480
b10000101 <!
#5482
#5500
b11010011 <!
#5502
#5520
b11000010 <!
#5522
#5540
b00011011 <!
0<"
#5542
#5560
b10110001 <!
1<"
#5562
#5580
b01001010 <!
0<"
#5582
#5600
b11110010 <!
1<"
#5602
#5620
b10010001 <!
#5622
#5640
b00101010 <!
0<"
#5642
#5660
b00110111 <!
#5662
#5680
b10000010 <!
1<"
#5682
#5700
b00011110 <!
0<"
#5702
#5720
b0 <!
#5722
#5740
b11010010 <!
1<"
#5742
#5760
b11000010 <!
#5762
#5780
b10010100 <!
#5782
#5800
b00101110 <!
0<"
#5802
#5820
b01111000 <!
#5822
#5840
b00111000 <!
#5842
#5860
b10100100 <!
1<"
#5862
#5880
b00100101 <!
0<"
#5882
#5900
b11001101 <!
1<"
#5902
#5920
b01001010 <!
0<"
#5922
#5940
b01111101 <!
#5942
#5960
b00100000 <!
#5962
#5980
b00011100 <!
#5982
#6000
b00010111 <!
#6002
#6020
b01111111 <!
#6022
#6040
b01001100 <!
#6042
#6060
b00111010 <!
#6062
#6080
b11001100 <!
1<"
#6082
#6100
b11111011 <!
#6102
#6120
b01011000 <!
0<"
#6122
#6140
b10001010 <!
1<"
#6142
#6160
b10010000 <!
#6162
#6180
b10111010 <!
#6182
#6200
b00001100 <!
0<"
#6202
#6220
b11001100 <!
1<"
#6222
#6240
b01110000 <!
0<"
#6242
#6260
b00010011 <!
#6262
#6280
b10001110 <!
1<"
#6282
#6300
b11111000 <!
#6302
#6320
b01011100 <!
0<"
#6322
#6340
b10111110 <!
1<"
#6342
#6360
b10000101 <!
#6362
#6380
b00111111 <!
0<"
#6382
#6400
b11001101 <!
1<"
#6402
#6420
b00001000 <!
0<"
#6422
#6440
b10110001 <!
1<"
#6442
#6460
b00101001 <!
0<"
#6462
#6480
b01010010 <!
#6482
#6500
b10101010 <!
1<"
#6502
#6520
b11101101 <!
#6522
#6540
b10100100 <!
#6542
#6560
b00101011 <!
0<"
#6562
#6580
b11000010 <!
1<"
#6582
#6600
b10110100 <!
#6602
#6620
b10010010 <!
#6622
#6640
b01110001 <!
0<"
#6642
#6660
b11101001 <!
1<"
#6662
#6680
b11011110 <!
#6682
#6700
b11111110 <!
#6702
#6720
b10000000 <!
#6722
#6740
b00100111 <!
0<"
#6742
#6760
b11100101 <!
1<"
#6762
#6780
b01011101 <!
0<"
#6782
#6800
b00011000 <!
#6802
#6820
b11100010 <!
1<"
#6822
#6840
b11010111 <!
#6842
#6860
b00111000 <!
0<"
#6862
#6880
b10000110 <!
1<"
#6882
#6900
b00100110 <!
0<"
#6902
#6920
b01100110 <!
#6922
#6940
b01110001 <!
#6942
#6960
b01010010 <!
#6962
#6980
b01111011 <!
#6982
#7000
b00011001 <!
#7002
#7020
b01100010 <!
#7022
#7040
b01100101 <!
#7042
#7060
b10000001 <!
1<"
#7062
#7080
b10111110 <!
#7082
#7100
b10001111 <!
#7102
#7120
b10001110 <!
#7122
#7140
b01010010 <!
0<"
#7142
#7160
b00000100 <!
#7162
#7180
b10110101 <!
1<"
#7182
#7200
b01111010 <!
0<"
#7202
#7220
b01001111 <!
#7222
#7240
b01011100 <!
#7242
#7260
b00110000 <!
#7262
#7280
b01100101 <!
#7282
#7300
b10010110 <!
1<"
#7302
#7320
b01100001 <!
0<"
#7322
#7340
b10000100 <!
1<"
#7342
#7360
b10101001 <!
#7362
#7380
b11011101 <!
#7382
#7400
b10111000 <!
#7402
#7420
b11101001 <!
#7422
#7440
b01000100 <!
0<"
#7442
#7460
b10001010 <!
1<"
#7462
#7480
b11101111 <!
#7482
#7500
b10110101 <!
#7502
#7520
b01111000 <!
0<"
#7522
#7540
b10100011 <!
1<"
#7542
#7560
b10101100 <!
#7562
#7580
b10101001 <!
#7582
#7600
b10001101 <!
#7602
#7620
b11111010 <!
#7622
#7640
b11111111 <!
#7642
#7660
b01111101 <!
0<"
#7662
#7680
b10101010 <!
1<"
#7682
#7700
b01111101 <!
0<"
#7702
#7720
b00111010 <!
#7722
#7740
b01100001 <!
#7742
#7760
b01100100 <!
#7762
#7780
b11011000 <!
1<"
#7782
#7800
b10111000 <!
#7802
#7820
b10001110 <!
#7822
#7840
b10101100 <!
#7842
#7860
b10111000 <!
#7862
#7880
b11111111 <!
#7882
#7900
b00110001 <!
0<"
#7902
#7920
b01001001 <!
#7922
#7940
b10011000 <!
1<"
#7942
#7960
b10111001 <!
#7962
#7980
b10111100 <!
#7982
#8000
b01011100 <!
0<"
#8002
#8020
b00110101 <!
#8022
#8040
b10111000 <!
1<"
#8042
#8060
b01011010 <!
0<"
#8062
#8080
b11000101 <!
1<"
#8082
#8100
b01011110 <!
0<"
#8102
#8120
b11111001 <!
1<"
#8122
#8140
b10101010 <!
#8142
#8160
b10101000 <!
#8162
#8180
b10010100 <!
#8182
#8200
b00001100 <!
0<"
#8202
#8220
b00111111 <!
#8222
#8240
b11110100 <!
1<"
#8242
#8260
b11001010 <!
#8262
#8280
b11011100 <!
#8282
#8300
b11100011 <!
#8302
#8320
b10000100 <!
#8322
#8340
b01001100 <!
0<"
#8342
#8360
b11010111 <!
1<"
#8362
#8380
b01111110 <!
0<"
#8382
#8400
b10110111 <!
1<"
#8402
#8420
b10000100 <!
#8422
#8440
b01111110 <!
0<"
#8442
#8460
b00111001 <!
#8462
#8500
b00100100 <!
#8502
#8520
b01001111 <!
#8522
#8540
b01011001 <!
#8542
#8560
b10111100 <!
1<"
#8562
#8580
b01000011 <!
0<"
#8582
#8600
b00100110 <!
#8602
#8620
b10110001 <!
1<"
#8622
#8640
b00110001 <!
0<"
#8642
#8660
b00100110 <!
#8662
#8680
b11000011 <!
1<"
#8682
#8700
b11101000 <!
#8702
#8720
b11110101 <!
#8722
#8740
b11110110 <!
#8742
#8760
b00001000 <!
0<"
#8762
#8780
b11010011 <!
1<"
#8782
#8800
b01000110 <!
0<"
#8802
#8820
b01101001 <!
#8822
#8840
b11101000 <!
1<"
#8842
#8860
b00100101 <!
0<"
#8862
#8880
b00011110 <!
#8882
#8900
b00000110 <!
#8902
#8920
b01111011 <!
#8922
#8940
b01011000 <!
#8942
#8960
b11001010 <!
1<"
#8962
#8980
b00110110 <!
0<"
#8982
#9000
b00101000 <!
#9002
#9020
b01000000 <!
#9022
#9040
b01100111 <!
#9042
#9060
b00000011 <!
#9062
#9080
b00111010 <!
#9082
#9100
b01110001 <!
#9102
#9120
b11111010 <!
1<"
#9122
#9140
b10111101 <!
#9142
#9160
b01010100 <!
0<"
#9162
#9200
b10100001 <!
1<"
#9202
#9220
b01100101 <!
0<"
#9222
#9240
b00101100 <!
#9242
#9260
b11011110 <!
1<"
#9262
#9280
b10001110 <!
#9282
#9300
b11101111 <!
#9302
#9320
b10100101 <!
#9322
#9340
b10011110 <!
#9342
#9360
b11100001 <!
#9362
#9380
b01000010 <!
0<"
#9382
#9400
b11001111 <!
1<"
#9402
#9420
b10100000 <!
#9422
#9440
b10101011 <!
#9442
#9460
b01100111 <!
0<"
#9462
#9480
b11111110 <!
1<"
#9482
#9500
b01000110 <!
0<"
#9502
#9520
b01011100 <!
#9522
#9540
b10000111 <!
1<"
#9542
#9560
b10011000 <!
#9562
#9580
b10110000 <!
#9582
#9600
b00000100 <!
0<"
#9602
#9620
b11001101 <!
1<"
#9622
#9640
b10000100 <!
#9642
#9660
b01000010 <!
0<"
#9662
#9680
b11011011 <!
1<"
#9682
#9700
b00101011 <!
0<"
#9702
#9720
b11010000 <!
1<"
#9722
#9740
b00111101 <!
0<"
#9742
#9760
b10011001 <!
1<"
#9762
#9780
b11110011 <!
#9782
#9800
b11010001 <!
#9802
#9820
b00010101 <!
0<"
#9822
#9840
b11000110 <!
1<"
#9842
#9860
b00101100 <!
0<"
#9862
#9880
b01100111 <!
#9882
#9900
b01000100 <!
#9902
#9920
b11000111 <!
1<"
#9922
#9940
b01001000 <!
0<"
#9942
#9960
b01101000 <!
#9962
#9980
b00101011 <!
#9982
#10000
b11101000 <!
1<"
#10002
#10020
b11001111 <!
#10022
#10040
b00010011 <!
0<"
#10042
#10060
b10101110 <!
1<"
#10062
#10080
b01010011 <!
0<"
#10082
#10100
b10001011 <!
1<"
#10102
#10120
b10110101 <!
#10122
#10140
b10101111 <!
#10142
#10160
b11001010 <!
#10162
#10180
b11101000 <!
#10182
#10200
b01010111 <!
0<"
#10202
#10220
b10101111 <!
1<"
#10222
#10240
b00000100 <!
0<"
#10242
#10260
b01000100 <!
#10262
#10280
b01010010 <!
#10282
#10300
b00001011 <!
#10302
#10320
b01001101 <!
#10322
#10340
b01101110 <!
#10342
#10360
b00100001 <!
#10362
#10380
b10010011 <!
1<"
#10382
#10400
b11000000 <!
#10402
#10420
b01001110 <!
0<"
#10422
#10440
b00111110 <!
#10442
#10460
b00101110 <!
#10462
#10480
b10101000 <!
1<"
#10482
#10500
b11101011 <!
#10502
#10520
b01100101 <!
0<"
#10522
#10540
b00000100 <!
#10542
#10560
b10101011 <!
1<"
#10562
#10580
b10001011 <!
#10582
#10600
b01101011 <!
0<"
#10602
#10620
b10110100 <!
1<"
#10622
#10640
b11110101 <!
#10642
#10660
b00001111 <!
0<"
#10662
#10680
b10011101 <!
1<"
#10682
#10700
b11100111 <!
#10702
#10720
b01100100 <!
0<"
#10722
#10740
b01100101 <!
#10742
#10760
b11100010 <!
1<"
#10762
#10780
b10111110 <!
#10782
#10800
b01000001 <!
0<"
#10802
#10820
b01001110 <!
#10822
#10840
b10011110 <!
1<"
#10842
#10860
b00110001 <!
0<"
#10862
#10880
b10000101 <!
1<"
#10882
#10900
b11010110 <!
#10902
#10920
b11011111 <!
#10922
#10940
b01100010 <!
0<"
#10942
#10960
b01100101 <!
#10962
#10980
b11000110 <!
1<"
#10982
#11000
b00001011 <!
0<"
#11002
#11020
b10101010 <!
1<"
#11022
#11040
b10000000 <!
#11042
#11060
b10111111 <!
#11062
#11080
b10110010 <!
#11082
#11100
b10000001 <!
#11102
#11120
b01010101 <!
0<"
#11122
#11140
b00001100 <!
#11142
#11160
b10110100 <!
1<"
#11162
#11180
b11101111 <!
#11182
#11200
b00000111 <!
0<"
#11202
#11220
b00101110 <!
#11222
#11240
b10011000 <!
1<"
#11242
#11260
b10011010 <!
#11262
#11280
b11111000 <!
#11282
#11300
b10110010 <!
#11302
#11320
b11001001 <!
#11322
#11340
b11010011 <!
#11342
#11360
b00101111 <!
0<"
#11362
#11380
b00101001 <!
#11382
#11400
b11100010 <!
1<"
#11402
#11420
b01010010 <!
0<"
#11422
#11440
b01001100 <!
#11442
#11460
b01000010 <!
#11462
#11480
b11110110 <!
1<"
#11482
#11500
b11111110 <!
#11502
#11520
b00010001 <!
0<"
#11522
#11540
b11111100 <!
1<"
#11542
#11560
b01001011 <!
0<"
#11562
#11580
b00000001 <!
#11582
#11600
b00111100 <!
#11602
#11620
b01000101 <!
#11622
#11640
b01101010 <!
#11642
#11660
b01001101 <!
#11662
#11680
b10111001 <!
1<"
#11682
#11700
b01100100 <!
0<"
#11702
#11720
b01110010 <!
#11722
#11740
b10001101 <!
1<"
#11742
#11760
b10110100 <!
#11762
#11780
b10111111 <!
#11782
#11800
b01010001 <!
0<"
#11802
#11820
b00110001 <!
#11822
#11840
b00010101 <!
#11842
#11860
b00000100 <!
#11862
#11880
b01100111 <!
#11882
#11900
b11000001 <!
1<"
#11902
#11920
b00011111 <!
0<"
#11922
#11940
b01001100 <!
#11942
#11960
b10100101 <!
1<"
#11962
#11980
b10100010 <!
#11982
#12000
b01111110 <!
0<"
#12002
#12020
b00011100 <!
#12022
#12040
b00111000 <!
#12042
#12060
b01100110 <!
#12062
#12080
b00110011 <!
#12082
#12100
b10110110 <!
1<"
#12102
#12120
b00110101 <!
0<"
#12122
#12140
b10100000 <!
1<"
#12142
#12160
b00011111 <!
0<"
#12162
#12180
b11100110 <!
1<"
#12182
#12200
b00011010 <!
0<"
#12202
#12220
b01110101 <!
#12222
#12240
b10001101 <!
1<"
#12242
#12260
b10011100 <!
#12262
#12280
b11111001 <!
#12282
#12300
b11011010 <!
#12302
#12320
b11011100 <!
#12322
#12340
b01101111 <!
0<"
#12342
#12360
b00101001 <!
#12362
#12380
b10111111 <!
1<"
#12382
#12400
b01011110 <!
0<"
#12402
#12420
b10010000 <!
1<"
#12422
#12440
b00010000 <!
0<"
#12442
#12460
b01010000 <!
#12462
#12480
b00111110 <!
#12482
#12500
b11000010 <!
1<"
#12502
#12520
b10110001 <!
#12522
#12540
b10010000 <!
#12542
#12560
b11110011 <!
#12562
#12580
b00010001 <!
0<"
#12582
#12600
b01011110 <!
#12602
#12620
b10100001 <!
1<"
#12622
#12640
b10010101 <!
#12642
#12660
b11011001 <!
#12662
#12680
b11101000 <!
#12682
#12700
b10100111 <!
#12702
#12720
b00000011 <!
0<"
#12722
#12740
b10110011 <!
1<"
#12742
#12760
b11101100 <!
#12762
#12780
b10000000 <!
#12782
#12800
b00000101 <!
0<"
#12802
#12820
b01101111 <!
#12822
#12840
b00010011 <!
#12842
#12860
b11100010 <!
1<"
#12862
#12880
b01101010 <!
0<"
#12882
#12900
b01011011 <!
#12902
#12920
b01100100 <!
#12922
#12960
b00111000 <!
#12962
#12980
b10011001 <!
1<"
#12982
#13000
b00101001 <!
0<"
#13002
#13020
b01110011 <!
#13022
#13040
b10011001 <!
1<"
#13042
#13060
b01000011 <!
0<"
#13062
#13080
b10100001 <!
1<"
#13082
#13100
b11011100 <!
#13102
#13120
b01100111 <!
0<"
#13122
#13140
b00110101 <!
#13142
#13160
b00111010 <!
#13162
#13180
b10110110 <!
1<"
#13182
#13200
b00000001 <!
0<"
#13202
#13220
b00101000 <!
#13222
#13240
b10100111 <!
1<"
#13242
#13260
b01010000 <!
0<"
#13262
#13280
b10110100 <!
1<"
#13282
#13300
b00101110 <!
0<"
#13302
#13320
b00111110 <!
#13322
#13340
b01011001 <!
#13342
#13360
b01110110 <!
#13362
#13380
b10110111 <!
1<"
#13382
#13400
b01110100 <!
0<"
#13402
#13420
b00100101 <!
#13422
#13440
b00010110 <!
#13442
#13460
b01100100 <!
#13462
#13480
b11101010 <!
1<"
#13482
#13500
b00101010 <!
0<"
#13502
#13520
b01100001 <!
#13522
#13540
b00110001 <!
#13542
#13560
b10101011 <!
1<"
#13562
#13580
b11000110 <!
#13582
#13600
b10001111 <!
#13602
#13620
b01000011 <!
0<"
#13622
#13640
b00101100 <!
#13642
#13660
b10101000 <!
1<"
#13662
#13680
b00000011 <!
0<"
#13682
#13700
b00001111 <!
#13702
#13720
b00100011 <!
#13722
#13740
b10111100 <!
1<"
#13742
#13760
b11100001 <!
#13762
#13780
b11011000 <!
#13782
#13800
b01001110 <!
0<"
#13802
#13820
b10101010 <!
1<"
#13822
#13840
b00011110 <!
0<"
#13842
#13860
b00100110 <!
#13862
#13880
b01101010 <!
#13882
#13900
b10101001 <!
1<"
#13902
#13920
b00101110 <!
0<"
#13922
#13940
b00111000 <!
#13942
#13960
b10110101 <!
1<"
#13962
#13980
b10110100 <!
#13982
#14000
b01011101 <!
0<"
#14002
#14020
b11101111 <!
1<"
#14022
#14040
b11101101 <!
#14042
#14060
b11000001 <!
#14062
#14080
b10111100 <!
#14082
#14100
b10100001 <!
#14102
#14120
b01100100 <!
0<"
#14122
#14140
b00011001 <!
#14142
#14160
b00000101 <!
#14162
#14180
b11111110 <!
1<"
#14182
#14200
b11010010 <!
#14202
#14220
b01000010 <!
0<"
#14222
#14240
b10000101 <!
1<"
#14242
#14260
b01110100 <!
0<"
#14262
#14280
b01111011 <!
#14282
#14300
b00100101 <!
#14302
#14320
b01110100 <!
#14322
#14340
b10011101 <!
1<"
#14342
#14360
b11000111 <!
#14362
#14380
b11001001 <!
#14382
#14400
b00010111 <!
0<"
#14402
#14420
b11110001 <!
1<"
#14422
#14440
b00011111 <!
0<"
#14442
#14460
b10011110 <!
1<"
#14462
#14480
b10110010 <!
#14482
#14500
b10001111 <!
#14502
#14520
b11101001 <!
#14522
#14540
b01110001 <!
0<"
#14542
#14560
b01101110 <!
#14562
#14580
b01101001 <!
#14582
#14600
b11011011 <!
1<"
#14602
#14620
b00100111 <!
0<"
#14622
#14640
b11111110 <!
1<"
#14642
#14660
b10101110 <!
#14662
#14680
b00111111 <!
0<"
#14682
#14700
b11010111 <!
1<"
#14702
#14720
b00001010 <!
0<"
#14722
#14740
b00000111 <!
#14742
#14760
b01101100 <!
#14762
#14780
b00110000 <!
#14782
#14800
b10011010 <!
1<"
#14802
#14820
b00100110 <!
0<"
#14822
#14840
b01010100 <!
#14842
#14860
b11110110 <!
1<"
#14862
#14880
b01001011 <!
0<"
#14882
#14900
b11000000 <!
1<"
#14902
#14920
b00011000 <!
0<"
#14922
#14940
b00101011 <!
#14942
#14960
b10010011 <!
1<"
#14962
#14980
b11010001 <!
#14982
#15000
b10100101 <!
#15002
#15020
b10000111 <!
#15022
#15040
b01110011 <!
0<"
#15042
#15060
b10111001 <!
1<"
#15062
#15080
b11001101 <!
#15082
#15100
b11000000 <!
#15102
#15120
b01001111 <!
0<"
#15122
#15140
b10111011 <!
1<"
#15142
#15160
b11111101 <!
#15162
#15180
b11011101 <!
#15182
#15200
b10001010 <!
#15202
#15220
b00001110 <!
0<"
#15222
#15240
b00011111 <!
#15242
#15260
b11011001 <!
1<"
#15262
#15280
b00111011 <!
0<"
#15282
#15300
b11101100 <!
1<"
#15302
#15320
b10101111 <!
#15322
#15340
b10001100 <!
#15342
#15360
b10010010 <!
#15362
#15380
b01101111 <!
0<"
#15382
#15400
b00000111 <!
#15402
#15420
b10000110 <!
1<"
#15422
#15440
b01100001 <!
0<"
#15442
#15460
b01100111 <!
#15462
#15480
b01001110 <!
#15482
#15500
b11110111 <!
1<"
#15502
#15520
b11000000 <!
#15522
#15540
b11111010 <!
#15542
#15560
b11110000 <!
#15562
#15580
b10100011 <!
#15582
#15600
b11101000 <!
#15602
#15620
b11101101 <!
#15622
#15640
b00010011 <!
0<"
#15642
#15660
b11101101 <!
1<"
#15662
#15680
b01110011 <!
0<"
#15682
#15700
b10100101 <!
1<"
#15702
#15720
b01111101 <!
0<"
#15722
#15740
b00101000 <!
#15742
#15760
b00011111 <!
#15762
#15780
b00100000 <!
#15782
#15800
b00110010 <!
#15802
#15820
b01101111 <!
#15822
#15840
b11100000 <!
1<"
#15842
#15860
b11011000 <!
#15862
#15880
b01101110 <!
0<"
#15882
#15900
b10110101 <!
1<"
#15902
#15920
b10011100 <!
#15922
#15940
b11011100 <!
#15942
#15960
b00000101 <!
0<"
#15962
#15980
b10000100 <!
1<"
#15982
#16000
b11001100 <!
#16002
#16020
b11010000 <!
#16022
#16040
b11100010 <!
#16042
#16060
b01101101 <!
0<"
#16062
#16080
b00111000 <!
#16082
#16100
b10110101 <!
1<"
#16102
#16120
b10111101 <!
#16122
#16140
b01101000 <!
0<"
#16142
#16160
b10001111 <!
1<"
#16162
#16180
b01011111 <!
0<"
#16182
#16200
b00101001 <!
#16202
#16220
b00010010 <!
#16222
#16240
b01100011 <!
#16242
#16260
b10011100 <!
1<"
#16262
#16280
b00111010 <!
0<"
#16282
#16300
b00011101 <!
#16302
#16320
b10101000 <!
1<"
#16322
#16340
b10001110 <!
#16342
#16360
b01100100 <!
0<"
#16362
#16380
b10111000 <!
1<"
#16382
#16400
b01101100 <!
0<"
#16402
#16420
b01111000 <!
#16422
#16440
b10101101 <!
1<"
#16442
#16460
b11000110 <!
#16462
#16480
b10011111 <!
#16482
#16500
b10100111 <!
#16502
#16520
b01010000 <!
0<"
#16522
#16540
b11100110 <!
1<"
#16542
#16560
b10100100 <!
#16562
#16580
b11100111 <!
#16582
#16600
b10001110 <!
#16602
#16620
b01111000 <!
0<"
#16622
#16640
b01000000 <!
#16642
#16660
b00000011 <!
#16662
#16680
b10110000 <!
1<"
#16682
#16700
b11101010 <!
#16702
#16720
b10001011 <!
#16722
